2005-08-08 12:37 +0000 [r444025]  toivo

	* branches/KDE/3.4/kdeadmin/kpackage/kplview.cpp,
	  branches/KDE/3.4/kdeadmin/kpackage/packageInfo.cpp: Fix sorting
	  by size

2005-08-08 12:51 +0000 [r444032]  toivo

	* branches/KDE/3.4/kdeadmin/kpackage/packageInfo.cpp: Don't need
	  those debugs

2005-10-05 13:46 +0000 [r467512]  coolo

	* branches/KDE/3.4/kdeadmin/kdeadmin.lsm: 3.4.3

