------------------------------------------------------------------------
r881006 | scripty | 2008-11-07 07:36:44 +0000 (Fri, 07 Nov 2008) | 1 line

SVN_SILENT made messages (.desktop file)
------------------------------------------------------------------------
r884095 | lueck | 2008-11-14 08:34:09 +0000 (Fri, 14 Nov 2008) | 1 line

needs to be '.html', not '.docbook' to render properly in khelpcenter
------------------------------------------------------------------------
r901595 | scripty | 2008-12-26 07:50:08 +0000 (Fri, 26 Dec 2008) | 1 line

SVN_SILENT made messages (.desktop file)
------------------------------------------------------------------------
